Washmachine_v2_1209_2230/simulation/qsim/Washmachine.msim.vcd
$comment
	File created using the following command:
		vcd file Washmachine.msim.vcd -direction
$end
$date
	Sat Dec 09 22:39:57 2023
$end
$version
	ModelSim Version 10.1d
$end
$timescale
	1ps
$end
$scope module Washmachine_vlg_vec_tst $end
$var reg 1 ! clk_24M $end
$var reg 1 " reset0 $end
$var reg 1 # start $end
$var reg 1 $ stop $end
$var reg 1 % waterfull $end
$var wire 1 & enable_out [3] $end
$var wire 1 ' enable_out [2] $end
$var wire 1 ( enable_out [1] $end
$var wire 1 ) enable_out [0] $end
$var wire 1 * segment_out [6] $end
$var wire 1 + segment_out [5] $end
$var wire 1 , segment_out [4] $end
$var wire 1 - segment_out [3] $end
$var wire 1 . segment_out [2] $end
$var wire 1 / segment_out [1] $end
$var wire 1 0 segment_out [0] $end
$var wire 1 1 state_display_out [5] $end
$var wire 1 2 state_display_out [4] $end
$var wire 1 3 state_display_out [3] $end
$var wire 1 4 state_display_out [2] $end
$var wire 1 5 state_display_out [1] $end
$var wire 1 6 state_display_out [0] $end
$var wire 1 7 sampler $end
$scope module i1 $end
$var wire 1 8 gnd $end
$var wire 1 9 vcc $end
$var wire 1 : unknown $end
$var tri1 1 ; devclrn $end
$var tri1 1 < devpor $end
$var tri1 1 = devoe $end
$var wire 1 > state_display_out[0]~output_o $end
$var wire 1 ? state_display_out[1]~output_o $end
$var wire 1 @ state_display_out[2]~output_o $end
$var wire 1 A state_display_out[3]~output_o $end
$var wire 1 B state_display_out[4]~output_o $end
$var wire 1 C state_display_out[5]~output_o $end
$var wire 1 D enable_out[0]~output_o $end
$var wire 1 E enable_out[1]~output_o $end
$var wire 1 F enable_out[2]~output_o $end
$var wire 1 G enable_out[3]~output_o $end
$var wire 1 H segment_out[0]~output_o $end
$var wire 1 I segment_out[1]~output_o $end
$var wire 1 J segment_out[2]~output_o $end
$var wire 1 K segment_out[3]~output_o $end
$var wire 1 L segment_out[4]~output_o $end
$var wire 1 M segment_out[5]~output_o $end
$var wire 1 N segment_out[6]~output_o $end
$var wire 1 O clk_24M~input_o $end
$var wire 1 P clk_24M~inputclkctrl_outclk $end
$var wire 1 Q start~input_o $end
$var wire 1 R stop~input_o $end
$var wire 1 S prescalerSix_inst|count[0]~3_combout $end
$var wire 1 T prescalerSix_inst|count[3]~2_combout $end
$var wire 1 U prescalerSix_inst|count~0_combout $end
$var wire 1 V prescalerSix_inst|count~1_combout $end
$var wire 1 W prescalerSix_inst|Equal0~0_combout $end
$var wire 1 X prescalerSix_inst|clk_out~0_combout $end
$var wire 1 Y prescalerSix_inst|clk_out~feeder_combout $end
$var wire 1 Z prescalerSix_inst|clk_out~q $end
$var wire 1 [ prescalerSix_inst|clk_out~clkctrl_outclk $end
$var wire 1 \ prescalerFour_inst|count[0]~3_combout $end
$var wire 1 ] prescalerFour_inst|count[1]~0_combout $end
$var wire 1 ^ prescalerFour_inst|count[3]~2_combout $end
$var wire 1 _ prescalerFour_inst|count~1_combout $end
$var wire 1 ` prescalerFour_inst|Equal0~0_combout $end
$var wire 1 a prescalerFour_inst|clk_out~0_combout $end
$var wire 1 b prescalerFour_inst|clk_out~feeder_combout $end
$var wire 1 c prescalerFour_inst|clk_out~q $end
$var wire 1 d prescalerFour_inst|clk_out~clkctrl_outclk $end
$var wire 1 e prescalerTen_inst1|count[0]~3_combout $end
$var wire 1 f prescalerTen_inst1|count[2]~1_combout $end
$var wire 1 g prescalerTen_inst1|count~2_combout $end
$var wire 1 h prescalerTen_inst1|count~0_combout $end
$var wire 1 i prescalerTen_inst1|clk_out~0_combout $end
$var wire 1 j prescalerTen_inst1|clk_out~1_combout $end
$var wire 1 k prescalerTen_inst1|clk_out~feeder_combout $end
$var wire 1 l prescalerTen_inst1|clk_out~q $end
$var wire 1 m prescalerTen_inst1|clk_out~clkctrl_outclk $end
$var wire 1 n prescalerTen_inst2|count[0]~3_combout $end
$var wire 1 o prescalerTen_inst2|count~1_combout $end
$var wire 1 p prescalerTen_inst2|count~2_combout $end
$var wire 1 q prescalerTen_inst2|count[2]~0_combout $end
$var wire 1 r prescalerTen_inst2|clk_out~0_combout $end
$var wire 1 s prescalerTen_inst2|clk_out~1_combout $end
$var wire 1 t prescalerTen_inst2|clk_out~feeder_combout $end
$var wire 1 u prescalerTen_inst2|clk_out~q $end
$var wire 1 v prescalerTen_inst2|clk_out~clkctrl_outclk $end
$var wire 1 w waterfull~input_o $end
$var wire 1 x washmachineControl_inst|Selector1~0_combout $end
$var wire 1 y washmachineControl_inst|Selector1~1_combout $end
$var wire 1 z reset0~input_o $end
$var wire 1 { reset0~inputclkctrl_outclk $end
$var wire 1 | washmachineControl_inst|state.st1_supply~q $end
$var wire 1 } timeCounter_inst|Mux16~0_combout $end
$var wire 1 ~ timeCounter_inst|Mux9~0_combout $end
$var wire 1 !! timeCounter_inst|ctseg1[0]~1_combout $end
$var wire 1 "! timeCounter_inst|Mux3~0_combout $end
$var wire 1 #! timeCounter_inst|Mux2~0_combout $end
$var wire 1 $! timeCounter_inst|Add0~0_combout $end
$var wire 1 %! timeCounter_inst|Mux1~0_combout $end
$var wire 1 &! timeCounter_inst|Add0~1_combout $end
$var wire 1 '! timeCounter_inst|Mux0~0_combout $end
$var wire 1 (! timeCounter_inst|LessThan2~0_combout $end
$var wire 1 )! washmachineControl_inst|WideOr5~0_combout $end
$var wire 1 *! timeCounter_inst|Mux7~0_combout $end
$var wire 1 +! washmachineControl_inst|state_out[0]~0_combout $end
$var wire 1 ,! timeCounter_inst|ctseg1[0]~0_combout $end
$var wire 1 -! timeCounter_inst|Mux6~0_combout $end
$var wire 1 .! timeCounter_inst|Add1~0_combout $end
$var wire 1 /! timeCounter_inst|Mux5~0_combout $end
$var wire 1 0! timeCounter_inst|Add1~1_combout $end
$var wire 1 1! timeCounter_inst|Mux4~0_combout $end
$var wire 1 2! timeCounter_inst|LessThan3~0_combout $end
$var wire 1 3! timeCounter_inst|ctseg2[2]~2_combout $end
$var wire 1 4! timeCounter_inst|LessThan4~0_combout $end
$var wire 1 5! timeCounter_inst|ctseg2[2]~1_combout $end
$var wire 1 6! timeCounter_inst|Mux11~0_combout $end
$var wire 1 7! timeCounter_inst|Mux10~0_combout $end
$var wire 1 8! timeCounter_inst|dewatersig~0_combout $end
$var wire 1 9! timeCounter_inst|Mux14~0_combout $end
$var wire 1 :! timeCounter_inst|ctseg3[2]~3_combout $end
$var wire 1 ;! timeCounter_inst|ctseg3[2]~4_combout $end
$var wire 1 <! timeCounter_inst|Mux13~2_combout $end
$var wire 1 =! timeCounter_inst|ctseg3[2]~0_combout $end
$var wire 1 >! timeCounter_inst|ctseg3[2]~1_combout $end
$var wire 1 ?! timeCounter_inst|ctseg3[2]~2_combout $end
$var wire 1 @! timeCounter_inst|Mux15~0_combout $end
$var wire 1 A! timeCounter_inst|Add3~0_combout $end
$var wire 1 B! timeCounter_inst|Mux12~0_combout $end
$var wire 1 C! timeCounter_inst|dewatersig~2_combout $end
$var wire 1 D! timeCounter_inst|dewatersig~3_combout $end
$var wire 1 E! timeCounter_inst|dewatersig~1_combout $end
$var wire 1 F! timeCounter_inst|dewatersig~4_combout $end
$var wire 1 G! timeCounter_inst|dewatersig~5_combout $end
$var wire 1 H! timeCounter_inst|dewatersig~6_combout $end
$var wire 1 I! timeCounter_inst|washsig~q $end
$var wire 1 J! washmachineControl_inst|Selector3~0_combout $end
$var wire 1 K! washmachineControl_inst|Selector3~1_combout $end
$var wire 1 L! washmachineControl_inst|state.st2_wash~q $end
$var wire 1 M! timeCounter_inst|ctseg2[2]~0_combout $end
$var wire 1 N! timeCounter_inst|Mux17~0_combout $end
$var wire 1 O! timeCounter_inst|watersig~q $end
$var wire 1 P! timeCounter_inst|Mux18~0_combout $end
$var wire 1 Q! timeCounter_inst|dewatersig~q $end
$var wire 1 R! washmachineControl_inst|Selector2~0_combout $end
$var wire 1 S! washmachineControl_inst|Selector2~1_combout $end
$var wire 1 T! washmachineControl_inst|state.st3_water~q $end
$var wire 1 U! washmachineControl_inst|Selector5~0_combout $end
$var wire 1 V! washmachineControl_inst|Selector5~1_combout $end
$var wire 1 W! washmachineControl_inst|state.st4_dewater~q $end
$var wire 1 X! timeCounter_inst|ctseg3[2]~5_combout $end
$var wire 1 Y! timeCounter_inst|alarmsig~q $end
$var wire 1 Z! washmachineControl_inst|Selector4~0_combout $end
$var wire 1 [! washmachineControl_inst|Selector4~1_combout $end
$var wire 1 \! washmachineControl_inst|state.st5_alarm~q $end
$var wire 1 ]! washmachineControl_inst|Selector0~0_combout $end
$var wire 1 ^! washmachineControl_inst|Selector0~1_combout $end
$var wire 1 _! washmachineControl_inst|Selector0~2_combout $end
$var wire 1 `! washmachineControl_inst|state.st0_idle~q $end
$var wire 1 a! washmachineControl_inst|state_led[0]~feeder_combout $end
$var wire 1 b! washmachineControl_inst|state_led[1]~feeder_combout $end
$var wire 1 c! washmachineControl_inst|state_led[2]~feeder_combout $end
$var wire 1 d! washmachineControl_inst|state_led[4]~feeder_combout $end
$var wire 1 e! washmachineControl_inst|state_led[5]~feeder_combout $end
$var wire 1 f! dynamicScan_inst|en.1101~q $end
$var wire 1 g! dynamicScan_inst|en.1011~feeder_combout $end
$var wire 1 h! dynamicScan_inst|en.1011~q $end
$var wire 1 i! dynamicScan_inst|en.0111~0_combout $end
$var wire 1 j! dynamicScan_inst|en.0111~q $end
$var wire 1 k! dynamicScan_inst|en.1110~0_combout $end
$var wire 1 l! dynamicScan_inst|en.1110~q $end
$var wire 1 m! dynamicScan_inst|seg[1]~0_combout $end
$var wire 1 n! dynamicScan_inst|seg[1]~1_combout $end
$var wire 1 o! dynamicScan_inst|Selector1~0_combout $end
$var wire 1 p! dynamicScan_inst|Selector1~1_combout $end
$var wire 1 q! dynamicScan_inst|Selector2~0_combout $end
$var wire 1 r! dynamicScan_inst|Selector2~1_combout $end
$var wire 1 s! dynamicScan_inst|seg[1]~2_combout $end
$var wire 1 t! dynamicScan_inst|Selector0~0_combout $end
$var wire 1 u! dynamicScan_inst|Selector0~1_combout $end
$var wire 1 v! dynamicScan_inst|Selector3~0_combout $end
$var wire 1 w! dynamicScan_inst|Selector3~1_combout $end
$var wire 1 x! segDecode_inst|WideOr6~0_combout $end
$var wire 1 y! segDecode_inst|WideOr5~0_combout $end
$var wire 1 z! segDecode_inst|WideOr4~0_combout $end
$var wire 1 {! segDecode_inst|WideOr3~0_combout $end
$var wire 1 |! segDecode_inst|WideOr2~0_combout $end
$var wire 1 }! segDecode_inst|WideOr1~0_combout $end
$var wire 1 ~! segDecode_inst|WideOr0~0_combout $end
$var wire 1 !" prescalerTen_inst1|count [3] $end
$var wire 1 "" prescalerTen_inst1|count [2] $end
$var wire 1 #" prescalerTen_inst1|count [1] $end
$var wire 1 $" prescalerTen_inst1|count [0] $end
$var wire 1 %" prescalerTen_inst2|count [3] $end
$var wire 1 &" prescalerTen_inst2|count [2] $end
$var wire 1 '" prescalerTen_inst2|count [1] $end
$var wire 1 (" prescalerTen_inst2|count [0] $end
$var wire 1 )" prescalerSix_inst|count [3] $end
$var wire 1 *" prescalerSix_inst|count [2] $end
$var wire 1 +" prescalerSix_inst|count [1] $end
$var wire 1 ," prescalerSix_inst|count [0] $end
$var wire 1 -" prescalerFour_inst|count [3] $end
$var wire 1 ." prescalerFour_inst|count [2] $end
$var wire 1 /" prescalerFour_inst|count [1] $end
$var wire 1 0" prescalerFour_inst|count [0] $end
$var wire 1 1" timeCounter_inst|ctseg1 [3] $end
$var wire 1 2" timeCounter_inst|ctseg1 [2] $end
$var wire 1 3" timeCounter_inst|ctseg1 [1] $end
$var wire 1 4" timeCounter_inst|ctseg1 [0] $end
$var wire 1 5" washmachineControl_inst|state_led [5] $end
$var wire 1 6" washmachineControl_inst|state_led [4] $end
$var wire 1 7" washmachineControl_inst|state_led [3] $end
$var wire 1 8" washmachineControl_inst|state_led [2] $end
$var wire 1 9" washmachineControl_inst|state_led [1] $end
$var wire 1 :" washmachineControl_inst|state_led [0] $end
$var wire 1 ;" timeCounter_inst|ctseg0 [3] $end
$var wire 1 <" timeCounter_inst|ctseg0 [2] $end
$var wire 1 =" timeCounter_inst|ctseg0 [1] $end
$var wire 1 >" timeCounter_inst|ctseg0 [0] $end
$var wire 1 ?" washmachineControl_inst|state_out [2] $end
$var wire 1 @" washmachineControl_inst|state_out [1] $end
$var wire 1 A" washmachineControl_inst|state_out [0] $end
$var wire 1 B" timeCounter_inst|ctseg2 [3] $end
$var wire 1 C" timeCounter_inst|ctseg2 [2] $end
$var wire 1 D" timeCounter_inst|ctseg2 [1] $end
$var wire 1 E" timeCounter_inst|ctseg2 [0] $end
$var wire 1 F" dynamicScan_inst|seg [3] $end
$var wire 1 G" dynamicScan_inst|seg [2] $end
$var wire 1 H" dynamicScan_inst|seg [1] $end
$var wire 1 I" dynamicScan_inst|seg [0] $end
$var wire 1 J" timeCounter_inst|ctseg3 [3] $end
$var wire 1 K" timeCounter_inst|ctseg3 [2] $end
$var wire 1 L" timeCounter_inst|ctseg3 [1] $end
$var wire 1 M" timeCounter_inst|ctseg3 [0] $end
$upscope $end
$upscope $end
$enddefinitions $end
#0
$dumpvars
0!
1"
0#
1$
1%
1)
1(
1'
0&
10
0/
0.
0-
0,
0+
0*
06
15
14
13
12
11
x7
08
19
x:
1;
1<
1=
0>
1?
1@
1A
1B
1C
1D
1E
1F
0G
1H
0I
0J
0K
0L
0M
0N
0O
0P
0Q
1R
1S
0T
0U
0V
0W
0X
0Y
0Z
0[
1\
0]
0^
0_
0`
0a
0b
0c
0d
1e
0f
0g
0h
1i
0j
0k
0l
0m
1n
0o
0p
0q
1r
0s
0t
0u
0v
1w
1x
1y
1z
1{
0|
0}
0~
0!!
0"!
0#!
0$!
0%!
0&!
0'!
1(!
1)!
0*!
1+!
1,!
0-!
0.!
0/!
00!
01!
12!
13!
04!
15!
06!
07!
18!
09!
0:!
1;!
0<!
1=!
1>!
0?!
0@!
0A!
0B!
0C!
1D!
0E!
1F!
1G!
1H!
0I!
0J!
0K!
0L!
1M!
0N!
0O!
0P!
0Q!
0R!
0S!
0T!
0U!
0V!
0W!
0X!
0Y!
0Z!
0[!
0\!
0]!
0^!
1_!
0`!
0a!
0b!
0c!
0d!
0e!
0f!
0g!
0h!
1i!
0j!
1k!
0l!
0m!
0n!
0o!
0p!
0q!
0r!
0s!
0t!
0u!
0v!
0w!
0x!
0y!
0z!
0{!
0|!
0}!
0~!
0$"
0#"
0""
0!"
0("
0'"
0&"
0%"
0,"
0+"
0*"
0)"
00"
0/"
0."
0-"
04"
03"
02"
01"
0:"
09"
08"
07"
06"
05"
0>"
0="
0<"
0;"
zA"
z@"
0?"
0E"
0D"
0C"
zB"
0I"
0H"
0G"
0F"
0M"
0L"
0K"
0J"
$end
#5000
1!
1O
1P
07
1`!
1|
1,"
1a!
1b!
1]!
0M!
0+!
1V
0S
#10000
0!
0O
0P
17
#15000
1!
1O
1P
07
19"
1+"
0,"
1:"
1S
0?
1>
05
16
#20000
0!
0O
0P
17
#25000
1!
1O
1P
07
1,"
0V
1U
0S
#30000
0!
0O
0P
17
#35000
1!
1O
1P
07
0+"
1*"
0,"
1S
#40000
0!
0O
0P
17
#45000
1!
1O
1P
07
1,"
1W
0U
0S
1X
1Y
#50000
0!
0O
0P
17
#55000
1!
1O
1P
07
1Z
0*"
0,"
1[
0X
0W
1S
0Y
1X
1Y
10"
1]
0\
#60000
0!
0O
0P
17
#65000
1!
1O
1P
07
1,"
1V
0S
#70000
0!
0O
0P
17
#75000
1!
1O
1P
07
1+"
0,"
1S
#80000
1#
0%
0!
1Q
0w
0O
0P
17
1J!
0x
1K!
0y
#85000
1!
1O
1P
07
1L!
0|
1,"
1c!
1}
0b!
0)!
1!!
0V
1U
0S
0H!
0;!
1:!
05!
03!
0,!
1*!
1?!
1"!
16!
1@!
#90000
0!
0O
0P
17
#95000
1!
1O
1P
07
18"
09"
0+"
1*"
0,"
1S
0@
1?
04
15
#100000
0!
0O
0P
17
#105000
1!
1O
1P
07
1,"
1W
0U
0S
0X
0Y
#110000
0!
0O
0P
17
#115000
1!
1O
1P
07
0Z
0*"
0,"
0[
1X
0W
1S
1Y
0X
0Y
#120000
0!
0O
0P
17
#125000
1!
1O
1P
07
1,"
1V
0S
#130000
0!
0O
0P
17
#135000
1!
1O
1P
07
1+"
0,"
1S
#140000
0!
0O
0P
17
#145000
1!
1O
1P
07
1,"
0V
1U
0S
#150000
0!
0O
0P
17
#155000
1!
1O
1P
07
0+"
1*"
0,"
1S
#160000
1%
0!
1w
0O
0P
17
1x
#165000
1!
1O
1P
07
1,"
1W
0U
0S
1X
1Y
#170000
0!
0O
0P
17
#175000
1!
1O
1P
07
1Z
0*"
0,"
1[
0X
0W
1S
0Y
1X
1Y
1/"
00"
1\
#180000
0!
0O
0P
17
#185000
1!
1O
1P
07
1,"
1V
0S
#190000
0!
0O
0P
17
#195000
1!
1O
1P
07
1+"
0,"
1S
#200000
0!
0O
0P
17
#205000
1!
1O
1P
07
1,"
0V
1U
0S
#210000
0!
0O
0P
17
#215000
1!
1O
1P
07
0+"
1*"
0,"
1S
#220000
0!
0O
0P
17
#225000
1!
1O
1P
07
1,"
1W
0U
0S
0X
0Y
#230000
0!
0O
0P
17
#235000
1!
1O
1P
07
0Z
0*"
0,"
0[
1X
0W
1S
1Y
0X
0Y
#240000
0!
0O
0P
17
#245000
1!
1O
1P
07
1,"
1V
0S
#250000
0!
0O
0P
17
#255000
1!
1O
1P
07
1+"
0,"
1S
#260000
0!
0O
0P
17
#265000
1!
1O
1P
07
1,"
0V
1U
0S
#270000
0!
0O
0P
17
#275000
1!
1O
1P
07
0+"
1*"
0,"
1S
#280000
0!
0O
0P
17
#285000
1!
1O
1P
07
1,"
1W
0U
0S
1X
1Y
#290000
0!
0O
0P
17
#295000
1!
1O
1P
07
1Z
0*"
0,"
1[
0X
0W
1S
0Y
1X
1Y
10"
1`
0]
0\
1a
1b
#300000
0!
0O
0P
17
#305000
1!
1O
1P
07
1,"
1V
0S
#310000
0!
0O
0P
17
#315000
1!
1O
1P
07
1+"
0,"
1S
#320000
0!
0O
0P
17
#325000
1!
1O
1P
07
1,"
0V
1U
0S
#330000
0!
0O
0P
17
#335000
1!
1O
1P
07
0+"
1*"
0,"
1S
#340000
0!
0O
0P
17
#345000
1!
1O
1P
07
1,"
1W
0U
0S
0X
0Y
#350000
0!
0O
0P
17
#355000
1!
1O
1P
07
0Z
0*"
0,"
0[
1X
0W
1S
1Y
0X
0Y
#360000
0!
0O
0P
17
#365000
1!
1O
1P
07
1,"
1V
0S
#370000
0!
0O
0P
17
#375000
1!
1O
1P
07
1+"
0,"
1S
#380000
0!
0O
0P
17
#385000
1!
1O
1P
07
1,"
0V
1U
0S
#390000
0!
0O
0P
17
#395000
1!
1O
1P
07
0+"
1*"
0,"
1S
#400000
0!
0O
0P
17
#405000
1!
1O
1P
07
1,"
1W
0U
0S
1X
1Y
#410000
0!
0O
0P
17
#415000
1!
1O
1P
07
1Z
0*"
0,"
1[
0X
0W
1S
0Y
1X
1Y
1c
0/"
00"
1d
0a
0`
1\
0b
1a
1b
1l!
1$"
1j!
1n!
1m!
0i
1g
0e
0k!
0D
1G
0)
1&
1v!
1t!
1q!
1o!
#420000
0!
0O
0P
17
#425000
1!
1O
1P
07
1,"
1V
0S
#430000
0!
0O
0P
17
#435000
1!
1O
1P
07
1+"
0,"
1S
#440000
0!
0O
0P
17
#445000
1!
1O
1P
07
1,"
0V
1U
0S
#450000
0!
0O
0P
17
#455000
1!
1O
1P
07
0+"
1*"
0,"
1S
#460000
0!
0O
0P
17
#465000
1!
1O
1P
07
1,"
1W
0U
0S
0X
0Y
#470000
0!
0O
0P
17
#475000
1!
1O
1P
07
0Z
0*"
0,"
0[
1X
0W
1S
1Y
0X
0Y
#480000
0!
0O
0P
17
#485000
1!
1O
1P
07
1,"
1V
0S
#490000
0!
0O
0P
17
#495000
1!
1O
1P
07
1+"
0,"
1S
#500000
0!
0O
0P
17
#505000
1!
1O
1P
07
1,"
0V
1U
0S
#510000
0!
0O
0P
17
#515000
1!
1O
1P
07
0+"
1*"
0,"
1S
#520000
0!
0O
0P
17
#525000
1!
1O
1P
07
1,"
1W
0U
0S
1X
1Y
#530000
0!
0O
0P
17
#535000
1!
1O
1P
07
1Z
0*"
0,"
1[
0X
0W
1S
0Y
1X
1Y
10"
1]
0\
#540000
0!
0O
0P
17
#545000
1!
1O
1P
07
1,"
1V
0S
#550000
0!
0O
0P
17
#555000
1!
1O
1P
07
1+"
0,"
1S
#560000
0!
0O
0P
17
#565000
1!
1O
1P
07
1,"
0V
1U
0S
#570000
0!
0O
0P
17
#575000
1!
1O
1P
07
0+"
1*"
0,"
1S
#580000
0!
0O
0P
17
#585000
1!
1O
1P
07
1,"
1W
0U
0S
0X
0Y
#590000
0!
0O
0P
17
#595000
1!
1O
1P
07
0Z
0*"
0,"
0[
1X
0W
1S
1Y
0X
0Y
#600000
0!
0O
0P
17
#605000
1!
1O
1P
07
1,"
1V
0S
#610000
0!
0O
0P
17
#615000
1!
1O
1P
07
1+"
0,"
1S
#620000
0!
0O
0P
17
#625000
1!
1O
1P
07
1,"
0V
1U
0S
#630000
0!
0O
0P
17
#635000
1!
1O
1P
07
0+"
1*"
0,"
1S
#640000
0!
0O
0P
17
#645000
1!
1O
1P
07
1,"
1W
0U
0S
1X
1Y
#650000
0!
0O
0P
17
#655000
1!
1O
1P
07
1Z
0*"
0,"
1[
0X
0W
1S
0Y
1X
1Y
1/"
00"
1\
#660000
0!
0O
0P
17
#665000
1!
1O
1P
07
1,"
1V
0S
#670000
0!
0O
0P
17
#675000
1!
1O
1P
07
1+"
0,"
1S
#680000
0!
0O
0P
17
#685000
1!
1O
1P
07
1,"
0V
1U
0S
#690000
0!
0O
0P
17
#695000
1!
1O
1P
07
0+"
1*"
0,"
1S
#700000
0!
0O
0P
17
#705000
1!
1O
1P
07
1,"
1W
0U
0S
0X
0Y
#710000
0!
0O
0P
17
#715000
1!
1O
1P
07
0Z
0*"
0,"
0[
1X
0W
1S
1Y
0X
0Y
#720000
0!
0O
0P
17
#725000
1!
1O
1P
07
1,"
1V
0S
#730000
0!
0O
0P
17
#735000
1!
1O
1P
07
1+"
0,"
1S
#740000
0!
0O
0P
17
#745000
1!
1O
1P
07
1,"
0V
1U
0S
#750000
0!
0O
0P
17
#755000
1!
1O
1P
07
0+"
1*"
0,"
1S
#760000
0!
0O
0P
17
#765000
1!
1O
1P
07
1,"
1W
0U
0S
1X
1Y
#770000
0!
0O
0P
17
#775000
1!
1O
1P
07
1Z
0*"
0,"
1[
0X
0W
1S
0Y
1X
1Y
10"
1`
0]
0\
0a
0b
#780000
0!
0O
0P
17
#785000
1!
1O
1P
07
1,"
1V
0S
#790000
0!
0O
0P
17
#795000
1!
1O
1P
07
1+"
0,"
1S
#800000
0!
0O
0P
17
#805000
1!
1O
1P
07
1,"
0V
1U
0S
#810000
0!
0O
0P
17
#815000
1!
1O
1P
07
0+"
1*"
0,"
1S
#820000
0!
0O
0P
17
#825000
1!
1O
1P
07
1,"
1W
0U
0S
0X
0Y
#830000
0!
0O
0P
17
#835000
1!
1O
1P
07
0Z
0*"
0,"
0[
1X
0W
1S
1Y
0X
0Y
#840000
0!
0O
0P
17
#845000
1!
1O
1P
07
1,"
1V
0S
#850000
0!
0O
0P
17
#855000
1!
1O
1P
07
1+"
0,"
1S
#860000
0!
0O
0P
17
#865000
1!
1O
1P
07
1,"
0V
1U
0S
#870000
0!
0O
0P
17
#875000
1!
1O
1P
07
0+"
1*"
0,"
1S
#880000
0!
0O
0P
17
#885000
1!
1O
1P
07
1,"
1W
0U
0S
1X
1Y
#890000
0!
0O
0P
17
#895000
1!
1O
1P
07
1Z
0*"
0,"
1[
0X
0W
1S
0Y
1X
1Y
0c
0/"
00"
0d
1a
0`
1\
1b
0a
0b
#900000
0!
0O
0P
17
#905000
1!
1O
1P
07
1,"
1V
0S
#910000
0!
0O
0P
17
#915000
1!
1O
1P
07
1+"
0,"
1S
#920000
0!
0O
0P
17
#925000
1!
1O
1P
07
1,"
0V
1U
0S
#930000
0!
0O
0P
17
#935000
1!
1O
1P
07
0+"
1*"
0,"
1S
#940000
0!
0O
0P
17
#945000
1!
1O
1P
07
1,"
1W
0U
0S
0X
0Y
#950000
0!
0O
0P
17
#955000
1!
1O
1P
07
0Z
0*"
0,"
0[
1X
0W
1S
1Y
0X
0Y
#960000
0!
0O
0P
17
#965000
1!
1O
1P
07
1,"
1V
0S
#970000
0!
0O
0P
17
#975000
1!
1O
1P
07
1+"
0,"
1S
#980000
0!
0O
0P
17
#985000
1!
1O
1P
07
1,"
0V
1U
0S
#990000
0!
0O
0P
17
#995000
1!
1O
1P
07
0+"
1*"
0,"
1S
#1000000
0!
0O
0P
17
#1005000
1!
1O
1P
07
1,"
1W
0U
0S
1X
1Y
#1010000
0!
0O
0P
17
#1015000
1!
1O
1P
07
1Z
0*"
0,"
1[
0X
0W
1S
0Y
1X
1Y
10"
1]
0\
#1020000
0!
0O
0P
17
#1025000
1!
1O
1P
07
1,"
1V
0S
#1030000
0!
0O
0P
17
#1035000
1!
1O
1P
07
1+"
0,"
1S
#1040000
0!
0O
0P
17
#1045000
1!
1O
1P
07
1,"
0V
1U
0S
#1050000
0!
0O
0P
17
#1055000
1!
1O
1P
07
0+"
1*"
0,"
1S
#1060000
0!
0O
0P
17
#1065000
1!
1O
1P
07
1,"
1W
0U
0S
0X
0Y
#1070000
0!
0O
0P
17
#1075000
1!
1O
1P
07
0Z
0*"
0,"
0[
1X
0W
1S
1Y
0X
0Y
#1080000
0!
0O
0P
17
#1085000
1!
1O
1P
07
1,"
1V
0S
#1090000
0!
0O
0P
17
#1095000
1!
1O
1P
07
1+"
0,"
1S
#1100000
0!
0O
0P
17
#1105000
1!
1O
1P
07
1,"
0V
1U
0S
#1110000
0!
0O
0P
17
#1115000
1!
1O
1P
07
0+"
1*"
0,"
1S
#1120000
0!
0O
0P
17
#1125000
1!
1O
1P
07
1,"
1W
0U
0S
1X
1Y
#1130000
0!
0O
0P
17
#1135000
1!
1O
1P
07
1Z
0*"
0,"
1[
0X
0W
1S
0Y
1X
1Y
1/"
00"
1\
#1140000
0!
0O
0P
17
#1145000
1!
1O
1P
07
1,"
1V
0S
#1150000
0!
0O
0P
17
#1155000
1!
1O
1P
07
1+"
0,"
1S
#1160000
0!
0O
0P
17
#1165000
1!
1O
1P
07
1,"
0V
1U
0S
#1170000
0!
0O
0P
17
#1175000
1!
1O
1P
07
0+"
1*"
0,"
1S
#1180000
0!
0O
0P
17
#1185000
1!
1O
1P
07
1,"
1W
0U
0S
0X
0Y
#1190000
0!
0O
0P
17
#1195000
1!
1O
1P
07
0Z
0*"
0,"
0[
1X
0W
1S
1Y
0X
0Y
#1200000
0!
0O
0P
17
#1205000
1!
1O
1P
07
1,"
1V
0S
#1210000
0!
0O
0P
17
#1215000
1!
1O
1P
07
1+"
0,"
1S
#1220000
0!
0O
0P
17
#1225000
1!
1O
1P
07
1,"
0V
1U
0S
#1230000
0!
0O
0P
17
#1235000
1!
1O
1P
07
0+"
1*"
0,"
1S
#1240000
0!
0O
0P
17
#1245000
1!
1O
1P
07
1,"
1W
0U
0S
1X
1Y
#1250000
0!
0O
0P
17
#1255000
1!
1O
1P
07
1Z
0*"
0,"
1[
0X
0W
1S
0Y
1X
1Y
10"
1`
0]
0\
1a
1b
#1260000
0!
0O
0P
17
#1265000
1!
1O
1P
07
1,"
1V
0S
#1270000
0!
0O
0P
17
#1275000
1!
1O
1P
07
1+"
0,"
1S
#1280000
0!
0O
0P
17
#1285000
1!
1O
1P
07
1,"
0V
1U
0S
#1290000
0!
0O
0P
17
#1295000
1!
1O
1P
07
0+"
1*"
0,"
1S
#1300000
0!
0O
0P
17
#1305000
1!
1O
1P
07
1,"
1W
0U
0S
0X
0Y
#1310000
0!
0O
0P
17
#1315000
1!
1O
1P
07
0Z
0*"
0,"
0[
1X
0W
1S
1Y
0X
0Y
#1320000
0!
0O
0P
17
#1325000
1!
1O
1P
07
1,"
1V
0S
#1330000
0!
0O
0P
17
#1335000
1!
1O
1P
07
1+"
0,"
1S
#1340000
0!
0O
0P
17
#1345000
1!
1O
1P
07
1,"
0V
1U
0S
#1350000
0!
0O
0P
17
#1355000
1!
1O
1P
07
0+"
1*"
0,"
1S
#1360000
0!
0O
0P
17
#1365000
1!
1O
1P
07
1,"
1W
0U
0S
1X
1Y
#1370000
0!
0O
0P
17
#1375000
1!
1O
1P
07
1Z
0*"
0,"
1[
0X
0W
1S
0Y
1X
1Y
1c
0/"
00"
1d
0a
0`
1\
0b
1a
1b
0l!
1f!
1#"
0$"
1u!
0n!
1g!
1i
1e
1D
0E
1)
0(
0v!
0t!
1r!
0q!
0o!
0u!
0r!
#1380000
0!
0O
0P
17
#1385000
1!
1O
1P
07
1,"
1V
0S
#1390000
0!
0O
0P
17
#1395000
1!
1O
1P
07
1+"
0,"
1S
#1400000
0!
0O
0P
17
#1405000
1!
1O
1P
07
1,"
0V
1U
0S
#1410000
0!
0O
0P
17
#1415000
1!
1O
1P
07
0+"
1*"
0,"
1S
#1420000
0!
0O
0P
17
#1425000
1!
1O
1P
07
1,"
1W
0U
0S
0X
0Y
#1430000
0!
0O
0P
17
#1435000
1!
1O
1P
07
0Z
0*"
0,"
0[
1X
0W
1S
1Y
0X
0Y
#1440000
0!
0O
0P
17
#1445000
1!
1O
1P
07
1,"
1V
0S
#1450000
0!
0O
0P
17
#1455000
1!
1O
1P
07
1+"
0,"
1S
#1460000
0!
0O
0P
17
