Washmachine_v2_1209_2230/simulation/qsim/Washmachine.msim.vcd
$comment
	File created using the following command:
		vcd file Washmachine.msim.vcd -direction
$end
$date
	Mon Dec 11 00:23:02 2023
$end
$version
	ModelSim Version 10.1d
$end
$timescale
	1ps
$end
$scope module WashmachineControl_vlg_vec_tst $end
$var reg 1 ! alarm $end
$var reg 1 " clk $end
$var reg 1 # dewater $end
$var reg 1 $ reset $end
$var reg 1 % start $end
$var reg 1 & stop $end
$var reg 1 ' wash $end
$var reg 1 ( water $end
$var reg 1 ) waterfull $end
$var wire 1 * state_led [5] $end
$var wire 1 + state_led [4] $end
$var wire 1 , state_led [3] $end
$var wire 1 - state_led [2] $end
$var wire 1 . state_led [1] $end
$var wire 1 / state_led [0] $end
$var wire 1 0 state_out [2] $end
$var wire 1 1 state_out [1] $end
$var wire 1 2 state_out [0] $end
$var wire 1 3 sampler $end
$scope module i1 $end
$var wire 1 4 gnd $end
$var wire 1 5 vcc $end
$var wire 1 6 unknown $end
$var tri1 1 7 devclrn $end
$var tri1 1 8 devpor $end
$var tri1 1 9 devoe $end
$var wire 1 : state_out[0]~output_o $end
$var wire 1 ; state_out[1]~output_o $end
$var wire 1 < state_out[2]~output_o $end
$var wire 1 = state_led[0]~output_o $end
$var wire 1 > state_led[1]~output_o $end
$var wire 1 ? state_led[2]~output_o $end
$var wire 1 @ state_led[3]~output_o $end
$var wire 1 A state_led[4]~output_o $end
$var wire 1 B state_led[5]~output_o $end
$var wire 1 C clk~input_o $end
$var wire 1 D clk~inputclkctrl_outclk $end
$var wire 1 E stop~input_o $end
$var wire 1 F waterfull~input_o $end
$var wire 1 G start~input_o $end
$var wire 1 H water~input_o $end
$var wire 1 I dewater~input_o $end
$var wire 1 J wash~input_o $end
$var wire 1 K Selector3~0_combout $end
$var wire 1 L Selector3~1_combout $end
$var wire 1 M reset~input_o $end
$var wire 1 N reset~inputclkctrl_outclk $end
$var wire 1 O state.st2_wash~q $end
$var wire 1 P Selector2~0_combout $end
$var wire 1 Q Selector2~1_combout $end
$var wire 1 R state.st3_water~q $end
$var wire 1 S Selector5~0_combout $end
$var wire 1 T Selector5~1_combout $end
$var wire 1 U state.st4_dewater~q $end
$var wire 1 V alarm~input_o $end
$var wire 1 W Selector4~0_combout $end
$var wire 1 X Selector4~1_combout $end
$var wire 1 Y state.st5_alarm~q $end
$var wire 1 Z Selector0~0_combout $end
$var wire 1 [ Selector0~1_combout $end
$var wire 1 \ Selector0~2_combout $end
$var wire 1 ] state.st0_idle~q $end
$var wire 1 ^ Selector1~0_combout $end
$var wire 1 _ Selector1~1_combout $end
$var wire 1 ` state.st1_supply~q $end
$var wire 1 a state_out~0_combout $end
$var wire 1 b WideOr5~0_combout $end
$var wire 1 c state_out~1_combout $end
$var wire 1 d state_led[0]~reg0feeder_combout $end
$var wire 1 e state_led[0]~reg0_q $end
$var wire 1 f state_led[1]~reg0_q $end
$var wire 1 g state_led[2]~reg0feeder_combout $end
$var wire 1 h state_led[2]~reg0_q $end
$var wire 1 i state_led[3]~reg0_q $end
$var wire 1 j state_led[4]~reg0_q $end
$var wire 1 k state_led[5]~reg0feeder_combout $end
$var wire 1 l state_led[5]~reg0_q $end
$upscope $end
$upscope $end
$enddefinitions $end
#0
$dumpvars
0!
0"
0#
1$
1%
1&
0'
0(
1)
0/
1.
1-
1,
1+
1*
02
01
00
x3
04
15
x6
17
18
19
0:
0;
0<
0=
1>
1?
1@
1A
1B
0C
0D
1E
1F
1G
0H
0I
0J
0K
0L
1M
1N
0O
0P
0Q
0R
0S
0T
0U
0V
0W
0X
0Y
0Z
0[
0\
0]
0^
0_
0`
1a
1b
0c
0d
0e
0f
0g
0h
0i
0j
0k
0l
$end
#20833
1"
1C
1D
03
#40000
0%
0G
13
1^
1\
1_
#41666
0"
0C
0D
03
#62499
1"
1C
1D
13
1`
1]
0a
1Z
1d
0^
1:
12
#80000
1%
1G
03
#83332
0"
0C
0D
13
#104165
1"
1C
1D
03
1f
1e
0>
1=
0.
1/
#124998
0"
0C
0D
13
#145831
1"
1C
1D
03
#166664
0"
0C
0D
13
#187497
1"
1C
1D
03
#208330
0"
0C
0D
13
#220000
0)
0F
03
0_
1L
#229163
1"
1C
1D
13
0`
1O
0b
0L
1g
1K
1L
1;
11
#249996
0"
0C
0D
03
#260000
1)
1F
13
#270829
1"
1C
1D
03
1h
0f
0?
1>
0-
1.
#291662
0"
0C
0D
13
#312495
1"
1C
1D
03
#333328
0"
0C
0D
13
#354161
1"
1C
1D
03
#374994
0"
0C
0D
13
#380000
1'
1J
03
1P
0K
1Q
0L
#395827
1"
1C
1D
13
1R
0O
0g
1a
0:
02
#416660
0"
0C
0D
03
#420000
0'
0J
13
#437493
1"
1C
1D
03
1i
0h
0@
1?
0,
1-
#458326
0"
0C
0D
13
#479159
1"
1C
1D
03
#499992
0"
0C
0D
13
#520825
1"
1C
1D
03
#541658
0"
0C
0D
13
#550000
1(
1H
03
1S
0P
1T
0Q
#562491
1"
1C
1D
13
1U
0R
1c
1<
10
#580000
0(
0H
03
#583324
0"
0C
0D
13
#604157
1"
1C
1D
03
1j
0i
0A
1@
0+
1,
#624990
0"
0C
0D
13
#645823
1"
1C
1D
03
#666656
0"
0C
0D
13
#670000
1#
1I
03
1W
0S
1X
0T
#687489
1"
1C
1D
13
1Y
0U
1k
1b
0Z
0;
01
#708322
0"
0C
0D
03
#710000
0#
0I
13
#729155
1"
1C
1D
03
1l
0j
0B
1A
0*
1+
#749988
0"
0C
0D
13
#770821
1"
1C
1D
03
#791654
0"
0C
0D
13
#812487
1"
1C
1D
03
#833320
0"
0C
0D
13
#854153
1"
1C
1D
03
#874986
0"
0C
0D
13
#895819
1"
1C
1D
03
#916652
0"
0C
0D
13
#937485
1"
1C
1D
03
#958318
0"
0C
0D
13
#979151
1"
1C
1D
03
#999984
0"
0C
0D
13
