Washmachine_v1_1209_1322/simulation/qsim/Washmachine.msim.vcd
$comment
	File created using the following command:
		vcd file Washmachine.msim.vcd -direction
$end
$date
	Sun Dec 03 16:42:15 2023
$end
$version
	ModelSim Version 10.1d
$end
$timescale
	1ps
$end
$scope module SegDecode_vlg_vec_tst $end
$var reg 4 ! seg [3:0] $end
$var wire 1 " segment [6] $end
$var wire 1 # segment [5] $end
$var wire 1 $ segment [4] $end
$var wire 1 % segment [3] $end
$var wire 1 & segment [2] $end
$var wire 1 ' segment [1] $end
$var wire 1 ( segment [0] $end
$var wire 1 ) sampler $end
$scope module i1 $end
$var wire 1 * gnd $end
$var wire 1 + vcc $end
$var wire 1 , unknown $end
$var tri1 1 - devclrn $end
$var tri1 1 . devpor $end
$var tri1 1 / devoe $end
$var wire 1 0 segment[0]~output_o $end
$var wire 1 1 segment[1]~output_o $end
$var wire 1 2 segment[2]~output_o $end
$var wire 1 3 segment[3]~output_o $end
$var wire 1 4 segment[4]~output_o $end
$var wire 1 5 segment[5]~output_o $end
$var wire 1 6 segment[6]~output_o $end
$var wire 1 7 seg[2]~input_o $end
$var wire 1 8 seg[1]~input_o $end
$var wire 1 9 seg[0]~input_o $end
$var wire 1 : seg[3]~input_o $end
$var wire 1 ; WideOr6~0_combout $end
$var wire 1 < WideOr5~0_combout $end
$var wire 1 = WideOr4~0_combout $end
$var wire 1 > WideOr3~0_combout $end
$var wire 1 ? WideOr2~0_combout $end
$var wire 1 @ WideOr1~0_combout $end
$var wire 1 A WideOr0~0_combout $end
$upscope $end
$upscope $end
$enddefinitions $end
#0
$dumpvars
b0 !
1(
0'
0&
0%
0$
0#
0"
x)
0*
1+
x,
1-
1.
1/
10
01
02
03
04
05
06
07
08
09
0:
0;
0<
0=
0>
0?
0@
0A
$end
#50000
b1 !
19
0)
1A
1>
1=
1<
16
13
12
11
1"
1%
1&
1'
#100000
b11 !
b10 !
09
18
1)
1;
0A
1?
0>
0=
00
06
14
03
02
0(
0"
1$
0%
0&
#150000
b11 !
19
0)
0?
1=
04
12
0$
1&
#200000
b111 !
b101 !
b100 !
09
08
17
1)
1A
1>
0<
16
13
01
1"
1%
0'
#250000
b101 !
19
0)
0A
1@
0>
06
15
03
0"
1#
0%
#300000
b111 !
b110 !
09
18
1)
0=
02
0&
#350000
b111 !
19
0)
0;
0@
1>
1=
1<
10
05
13
12
11
1(
0#
1%
1&
1'
#400000
b1111 !
b1011 !
b1001 !
b1000 !
09
08
07
1:
1)
1;
0>
0=
0<
00
03
02
01
0(
0%
0&
0'
#450000
b1001 !
19
0)
1=
12
1&
#500000
b1011 !
b1010 !
09
18
1)
0;
1A
1@
1?
1>
1<
10
16
15
14
13
11
1(
1"
1#
1$
1%
1'
#550000
b1011 !
19
0)
#600000
b1111 !
b1101 !
b1100 !
09
08
17
1)
#650000
b1101 !
19
0)
#700000
b1111 !
b1110 !
09
18
1)
#750000
b1111 !
19
0)
#800000
b111 !
b11 !
b1 !
b0 !
09
08
07
0:
1)
0A
0@
0?
0>
0=
0<
06
05
04
03
02
01
0"
0#
0$
0%
0&
0'
#850000
b1 !
19
0)
1A
1>
1=
1<
16
13
12
11
1"
1%
1&
1'
#900000
b11 !
b10 !
09
18
1)
1;
0A
1?
0>
0=
00
06
14
03
02
0(
0"
1$
0%
0&
#950000
b11 !
19
0)
0?
1=
04
12
0$
1&
